{
  "type": "custom-component",
  "name": "inside",
  "children": [
    {
      "name": "another",
      "nodeName": "another",
      "elementId": "",
      "attributes": [
        {
          "property": "data-id",
          "value": "N6QchC"
        }
      ],
      "classList": [],
      "conditionalClasses": [],
      "contentType": "text",
      "displayExpression": "",
      "events": {},
      "iterate": {
        "array": "",
        "variable": "",
        "trackByIndex": false
      },
      "styles": [],
      "children": [],
      "comments": "",
      "type": "custom-component",
      "id": "6622269eafe92879f8da74e2",
      "expressions": []
    }
  ],
  "variables": [],
  "bindings": [],
  "modules": [],
  "externalScripts": [],
  "externalStylesheets": []
}